Alvaro Manzanas - 7 Transformations with Tidyverse
…
# A tibble: 4 × 4
  workclass        fnlwgt education education_num
  <chr>             <dbl> <chr>             <dbl>
1 State-gov         77516 Bachelors            13
2 Self-emp-not-inc  83311 Bachelors            13
3 Private          215646 HS-grad               9
4 Private          234721 11th                  7

slice_min(), slice_max(): to fetch the top or bottom observation given a percentage.

slice_sample(): to extract a sample.

df %>% slice_min(age, prop = 0.15)

# A tibble: 5,570 × 15
     age workclass fnlwgt education education_num marital_status occupation     
   <dbl> <chr>      <dbl> <chr>             <dbl> <chr>          <chr>          
 1    17 ?         304873 10th                  6 Never-married  ?              
 2    17 Private    65368 11th                  7 Never-married  Sales          
 3    17 Private   245918 11th                  7 Never-married  Other-service  
 4    17 Private   191260 9th                   5 Never-married  Other-service  
 5    17 Private   270942 5th-6th               3 Never-married  Other-service  
 6    17 Private    89821 11th                  7 Never-married  Other-service  
 7    17 Private   175024 11th                  7 Never-married  Handlers-clean…
 8    17 ?         202521 11th                  7 Never-married  ?              
 9    17 ?         258872 11th                  7 Never-married  ?              
10    17 Private   211870 9th                   5 Never-married  Other-service  
# ℹ 5,560 more rows
# ℹ 8 more variables: relationship <chr>, race <chr>, sex <chr>,
#   capital_gain <dbl>, capital_loss <dbl>, hours_per_week <dbl>,
#   native_country <chr>, target <chr>
…
One alternative can be to use across(everything()) to replace with ifelse():

df.rep <- df %>% 
      mutate( across( everything(), ~ ifelse( . == '?', NA, . ) ) )

df.rep[which(is.na(df.rep["workclass"])),]

# A tibble: 1,836 × 15
     age workclass fnlwgt education    education_num marital_status   occupation
   <dbl> <chr>      <dbl> <chr>                <dbl> <chr>            <chr>     
 1    54 <NA>      180211 Some-college            10 Married-civ-spo… <NA>      
 2    32 <NA>      293936 7th-8th                  4 Married-spouse-… <NA>      
 3    25 <NA>      200681 Some-college            10 Never-married    <NA>      
 4    67 <NA>      212759 10th                     6 Married-civ-spo… <NA>      
 5    17 <NA>      304873 10th                     6 Never-married    <NA>      
 6    35 <NA>      129305 HS-grad                  9 Married-civ-spo… <NA>      
 7    43 <NA>      174662 Some-college            10 Divorced         <NA>      
 8    52 <NA>      252903 HS-grad                  9 Divorced         <NA>      
 9    68 <NA>       38317 1st-4th                  2 Divorced         <NA>      
10    53 <NA>      135105 Bachelors               13 Divorced         <NA>      
# ℹ 1,826 more rows
# ℹ 8 more variables: relationship <chr>, race <chr>, sex <chr>,
#   capital_gain <dbl>, capital_loss <dbl>, hours_per_week <dbl>,
#   native_country <chr>, target <chr>
…
